…
```
##  [1] "record_id"       "month"           "day"             "year"           
##  [5] "plot_id"         "species_id"      "sex"             "hindfoot_length"
##  [9] "weight"          "genus"           "species"         "taxa"           
## [13] "plot_type"
```


```r
deserts %>% 
  count(genus)
```

```
## # A tibble: 26 x 2
##    genus                n
##    <chr>            <int>
##  1 Ammodramus           2
##  2 Ammospermophilus   437
##  3 Amphispiza         303
##  4 Baiomys             46
##  5 Calamospiza         13
##  6 Callipepla          16
##  7 Campylorhynchus     50
##  8 Chaetodipus       6029
##  9 Cnemidophorus        2
## 10 Crotalus             2
## # ... with 16 more rows
```
…
```r
deserts %>% 
  select(species, weight, hindfoot_length) %>% 
  group_by(species) %>% 
  summarize(mean_weight = mean(weight, na.rm = T)) %>% 
  arrange(desc(mean_weight))
```

```
## `summarise()` ungrouping output (override with `.groups` argument)
```

```
## # A tibble: 40 x 2
##    species      mean_weight
##    <chr>              <dbl>
##  1 albigula           159. 
##  2 spectabilis        120. 
##  3 spilosoma           93.5
##  4 hispidus            65.6
##  5 fulviventer         58.9
##  6 ochrognathus        55.4
##  7 ordii               48.9
##  8 merriami            43.2
##  9 baileyi             31.7
## 10 leucogaster         31.6
## # ... with 30 more rows
```
…
