…
**4. (2 points) Change the names of the variables to lower case and change the class of the variable `sex` to a factor.**

elephants <- elephants %>% 
  rename(age = "Age" , height = "Height" , sex = "Sex")
names(elephants)

```r
elephants <- select_all(elephants, tolower)
elephants
```

```
## # A tibble: 288 x 3
##      age height sex  
##    <dbl>  <dbl> <chr>
##  1   1.4   120  M    
##  2  17.5   227  M    
##  3  12.8   235  M    
##  4  11.2   210  M    
##  5  12.7   220  M    
##  6  12.7   189  M    
##  7  12.2   225  M    
##  8  12.2   204  M    
##  9  28.2   266. M    
## 10  11.7   233  M    
## # ... with 278 more rows
```
…
