…
2. Notice that we have some neutral superheros! Who are they?

```r
superhero_info %>% 
  filter(alignment == "neutral") 
```

```
## # A tibble: 24 x 10
##    name  gender eye_color race  hair_color height publisher skin_color alignment
##    <chr> <chr>  <chr>     <chr> <chr>       <dbl> <chr>     <chr>      <chr>    
##  1 Biza~ Male   black     Biza~ Black         191 DC Comics white      neutral  
##  2 Blac~ Male   <NA>      God ~ <NA>           NA DC Comics <NA>       neutral  
##  3 Capt~ Male   brown     Human Brown          NA DC Comics <NA>       neutral  
##  4 Copy~ Female red       Muta~ White         183 Marvel C~ blue       neutral  
##  5 Dead~ Male   brown     Muta~ No Hair       188 Marvel C~ <NA>       neutral  
##  6 Deat~ Male   blue      Human White         193 DC Comics <NA>       neutral  
##  7 Etri~ Male   red       Demon No Hair       193 DC Comics yellow     neutral  
##  8 Gala~ Male   black     Cosm~ Black         876 Marvel C~ <NA>       neutral  
##  9 Glad~ Male   blue      Stro~ Blue          198 Marvel C~ purple     neutral  
## 10 Indi~ Female <NA>      Alien Purple         NA DC Comics <NA>       neutral  
## # ... with 14 more rows, and 1 more variable: weight <dbl>
```
…
```
##  [1] "name"       "gender"     "eye_color"  "race"       "hair_color"
##  [6] "height"     "publisher"  "skin_color" "alignment"  "weight"
```

```r
superhero_info %>% 
  select(name, alignment, race)
```

```
## # A tibble: 734 x 3
##    name          alignment race             
##    <chr>         <chr>     <chr>            
##  1 A-Bomb        good      Human            
##  2 Abe Sapien    good      Icthyo Sapien    
##  3 Abin Sur      good      Ungaran          
##  4 Abomination   bad       Human / Radiation
##  5 Abraxas       bad       Cosmic Entity    
##  6 Absorbing Man bad       Human            
##  7 Adam Monroe   good      <NA>             
##  8 Adam Strange  good      Human            
##  9 Agent 13      good      <NA>             
## 10 Agent Bob     good      Human            
## # ... with 724 more rows
```

## Not Human
4. List all of the superheros that are not human.

```r
superhero_info %>% 
  filter(race != "Human")
```

```
## # A tibble: 222 x 10
##    name  gender eye_color race  hair_color height publisher skin_color alignment
##    <chr> <chr>  <chr>     <chr> <chr>       <dbl> <chr>     <chr>      <chr>    
##  1 Abe ~ Male   blue      Icth~ No Hair       191 Dark Hor~ blue       good     
##  2 Abin~ Male   blue      Unga~ No Hair       185 DC Comics red        good     
##  3 Abom~ Male   green     Huma~ No Hair       203 Marvel C~ <NA>       bad      
##  4 Abra~ Male   blue      Cosm~ Black          NA Marvel C~ <NA>       bad      
##  5 Ajax  Male   brown     Cybo~ Black         193 Marvel C~ <NA>       bad      
##  6 Alien Male   <NA>      Xeno~ No Hair       244 Dark Hor~ black      bad      
##  7 Amazo Male   red       Andr~ <NA>          257 DC Comics <NA>       bad      
##  8 Angel Male   <NA>      Vamp~ <NA>           NA Dark Hor~ <NA>       good     
##  9 Ange~ Female yellow    Muta~ Black         165 Marvel C~ <NA>       good     
## 10 Anti~ Male   yellow    God ~ No Hair        61 DC Comics <NA>       bad      
## # ... with 212 more rows, and 1 more variable: weight <dbl>
```

## Good and Evil
5. Let's make two different data frames, one focused on the "good guys" and another focused on the "bad guys".


```r
good_guys <- filter(superhero_info, alignment == 'good')
good_guys
```

```
## # A tibble: 496 x 10
##    name  gender eye_color race  hair_color height publisher skin_color alignment
##    <chr> <chr>  <chr>     <chr> <chr>       <dbl> <chr>     <chr>      <chr>    
##  1 A-Bo~ Male   yellow    Human No Hair       203 Marvel C~ <NA>       good     
##  2 Abe ~ Male   blue      Icth~ No Hair       191 Dark Hor~ blue       good     
##  3 Abin~ Male   blue      Unga~ No Hair       185 DC Comics red        good     
##  4 Adam~ Male   blue      <NA>  Blond          NA NBC - He~ <NA>       good     
##  5 Adam~ Male   blue      Human Blond         185 DC Comics <NA>       good     
##  6 Agen~ Female blue      <NA>  Blond         173 Marvel C~ <NA>       good     
##  7 Agen~ Male   brown     Human Brown         178 Marvel C~ <NA>       good     
##  8 Agen~ Male   <NA>      <NA>  <NA>          191 Marvel C~ <NA>       good     
##  9 Alan~ Male   blue      <NA>  Blond         180 DC Comics <NA>       good     
## 10 Alex~ Male   <NA>      <NA>  <NA>           NA NBC - He~ <NA>       good     
## # ... with 486 more rows, and 1 more variable: weight <dbl>
```

```r
bad_guys <- filter(superhero_info, alignment == "bad")
bad_guys
```

```
## # A tibble: 207 x 10
##    name  gender eye_color race  hair_color height publisher skin_color alignment
##    <chr> <chr>  <chr>     <chr> <chr>       <dbl> <chr>     <chr>      <chr>    
##  1 Abom~ Male   green     Huma~ No Hair       203 Marvel C~ <NA>       bad      
##  2 Abra~ Male   blue      Cosm~ Black          NA Marvel C~ <NA>       bad      
##  3 Abso~ Male   blue      Human No Hair       193 Marvel C~ <NA>       bad      
##  4 Air-~ Male   blue      <NA>  White         188 Marvel C~ <NA>       bad      
##  5 Ajax  Male   brown     Cybo~ Black         193 Marvel C~ <NA>       bad      
##  6 Alex~ Male   <NA>      Human <NA>           NA Wildstorm <NA>       bad      
##  7 Alien Male   <NA>      Xeno~ No Hair       244 Dark Hor~ black      bad      
##  8 Amazo Male   red       Andr~ <NA>          257 DC Comics <NA>       bad      
##  9 Ammo  Male   brown     Human Black         188 Marvel C~ <NA>       bad      
## 10 Ange~ Female <NA>      <NA>  <NA>           NA Image Co~ <NA>       bad      
## # ... with 197 more rows, and 1 more variable: weight <dbl>
```
…
8. Among the bad guys, who are the male humans over 200 inches in height?

```r
bad_guys %>% 
  filter(gender == "Male") %>% 
  filter(height > 200)
```

```
## # A tibble: 22 x 10
##    name  gender eye_color race  hair_color height publisher skin_color alignment
##    <chr> <chr>  <chr>     <chr> <chr>       <dbl> <chr>     <chr>      <chr>    
##  1 Abom~ Male   green     Huma~ No Hair       203 Marvel C~ <NA>       bad      
##  2 Alien Male   <NA>      Xeno~ No Hair       244 Dark Hor~ black      bad      
##  3 Amazo Male   red       Andr~ <NA>          257 DC Comics <NA>       bad      
##  4 Apoc~ Male   red       Muta~ Black         213 Marvel C~ grey       bad      
##  5 Bane  Male   <NA>      Human <NA>          203 DC Comics <NA>       bad      
##  6 Dark~ Male   red       New ~ No Hair       267 DC Comics grey       bad      
##  7 Doct~ Male   brown     Human Brown         201 Marvel C~ <NA>       bad      
##  8 Doct~ Male   brown     <NA>  Brown         201 Marvel C~ <NA>       bad      
##  9 Doom~ Male   red       Alien White         244 DC Comics <NA>       bad      
## 10 Kill~ Male   red       Meta~ No Hair       244 DC Comics green      bad      
## # ... with 12 more rows, and 1 more variable: weight <dbl>
```
</div>

9. OK, so are there more good guys or bad guys that are bald (personal interest)?

```r
good_guys %>% 
  filter(hair_color == "No Hair")
```

```
## # A tibble: 37 x 10
##    name  gender eye_color race  hair_color height publisher skin_color alignment
##    <chr> <chr>  <chr>     <chr> <chr>       <dbl> <chr>     <chr>      <chr>    
##  1 A-Bo~ Male   yellow    Human No Hair       203 Marvel C~ <NA>       good     
##  2 Abe ~ Male   blue      Icth~ No Hair       191 Dark Hor~ blue       good     
##  3 Abin~ Male   blue      Unga~ No Hair       185 DC Comics red        good     
##  4 Beta~ Male   <NA>      <NA>  No Hair       201 Marvel C~ <NA>       good     
##  5 Bish~ Male   brown     Muta~ No Hair       198 Marvel C~ <NA>       good     
##  6 Blac~ Male   brown     <NA>  No Hair       185 DC Comics <NA>       good     
##  7 Blaq~ <NA>   black     <NA>  No Hair        NA Marvel C~ <NA>       good     
##  8 Bloo~ Male   black     Muta~ No Hair        NA Marvel C~ <NA>       good     
##  9 Crim~ Male   brown     <NA>  No Hair       180 Marvel C~ <NA>       good     
## 10 Dona~ Male   green     Muta~ No Hair        NA IDW Publ~ green      good     
## # ... with 27 more rows, and 1 more variable: weight <dbl>
```

```r
bad_guys %>% 
  filter(hair_color == "No Hair")
```

```
## # A tibble: 35 x 10
##    name  gender eye_color race  hair_color height publisher skin_color alignment
##    <chr> <chr>  <chr>     <chr> <chr>       <dbl> <chr>     <chr>      <chr>    
##  1 Abom~ Male   green     Huma~ No Hair     203   Marvel C~ <NA>       bad      
##  2 Abso~ Male   blue      Human No Hair     193   Marvel C~ <NA>       bad      
##  3 Alien Male   <NA>      Xeno~ No Hair     244   Dark Hor~ black      bad      
##  4 Anni~ Male   green     <NA>  No Hair     180   Marvel C~ <NA>       bad      
##  5 Anti~ Male   yellow    God ~ No Hair      61   DC Comics <NA>       bad      
##  6 Blac~ Male   black     Human No Hair     188   DC Comics <NA>       bad      
##  7 Bloo~ Male   white     <NA>  No Hair      30.5 Marvel C~ <NA>       bad      
##  8 Brai~ Male   green     Andr~ No Hair     198   DC Comics green      bad      
##  9 Dark~ Male   red       New ~ No Hair     267   DC Comics grey       bad      
## 10 Dart~ Male   yellow    Cybo~ No Hair     198   George L~ <NA>       bad      
## # ... with 25 more rows, and 1 more variable: weight <dbl>
```
There are 37 good guys with no hair and only 35 bad guys with no hair - there are more bald good guys. 

10. Let's explore who the really "big" superheros are. In the `superhero_info` data, which have a height over 200 or weight over 300?

```r
superhero_info %>%  
  filter(height > 200 | weight >300 )
```

```
## # A tibble: 65 x 10
##    name  gender eye_color race  hair_color height publisher skin_color alignment
##    <chr> <chr>  <chr>     <chr> <chr>       <dbl> <chr>     <chr>      <chr>    
##  1 A-Bo~ Male   yellow    Human No Hair       203 Marvel C~ <NA>       good     
##  2 Abom~ Male   green     Huma~ No Hair       203 Marvel C~ <NA>       bad      
##  3 Alien Male   <NA>      Xeno~ No Hair       244 Dark Hor~ black      bad      
##  4 Amazo Male   red       Andr~ <NA>          257 DC Comics <NA>       bad      
##  5 Ant-~ Male   blue      Human Blond         211 Marvel C~ <NA>       good     
##  6 Anti~ Male   blue      Symb~ Blond         229 Marvel C~ <NA>       <NA>     
##  7 Apoc~ Male   red       Muta~ Black         213 Marvel C~ grey       bad      
##  8 Bane  Male   <NA>      Human <NA>          203 DC Comics <NA>       bad      
##  9 Beta~ Male   <NA>      <NA>  No Hair       201 Marvel C~ <NA>       good     
## 10 Bloo~ Female blue      Human Brown         218 Marvel C~ <NA>       bad      
## # ... with 55 more rows, and 1 more variable: weight <dbl>
```
…
```r
superhero_info %>% 
  mutate(height_weight_ratio = height/weight) %>% 
  arrange(height_weight_ratio)
```

```
## # A tibble: 734 x 11
##    name  gender eye_color race  hair_color height publisher skin_color alignment
##    <chr> <chr>  <chr>     <chr> <chr>       <dbl> <chr>     <chr>      <chr>    
##  1 Giga~ Female green     <NA>  Red          62.5 DC Comics <NA>       bad      
##  2 Utga~ Male   blue      Fros~ White        15.2 Marvel C~ <NA>       bad      
##  3 Dark~ Male   red       New ~ No Hair     267   DC Comics grey       bad      
##  4 Jugg~ Male   blue      Human Red         287   Marvel C~ <NA>       neutral  
##  5 Red ~ Male   yellow    Huma~ Black       213   Marvel C~ red        neutral  
##  6 Sasq~ Male   red       <NA>  Orange      305   Marvel C~ <NA>       good     
##  7 Hulk  Male   green     Huma~ Green       244   Marvel C~ green      good     
##  8 Bloo~ Female blue      Human Brown       218   Marvel C~ <NA>       bad      
##  9 Than~ Male   red       Eter~ No Hair     201   Marvel C~ purple     bad      
## 10 A-Bo~ Male   yellow    Human No Hair     203   Marvel C~ <NA>       good     
## # ... with 724 more rows, and 2 more variables: weight <dbl>,
## #   height_weight_ratio <dbl>
```

```r
superhero_info %>% 
  mutate(height_weight_ratio = height/weight) %>% 
  arrange(desc(height_weight_ratio))
```

```
## # A tibble: 734 x 11
##    name  gender eye_color race  hair_color height publisher skin_color alignment
##    <chr> <chr>  <chr>     <chr> <chr>       <dbl> <chr>     <chr>      <chr>    
##  1 Groot Male   yellow    Flor~ <NA>          701 Marvel C~ <NA>       good     
##  2 Gala~ Male   black     Cosm~ Black         876 Marvel C~ <NA>       neutral  
##  3 Fin ~ Male   red       Kaka~ No Hair       975 Marvel C~ green      good     
##  4 Long~ Male   blue      Human Blond         188 Marvel C~ <NA>       good     
##  5 Jack~ Male   blue      Human Brown          71 Dark Hor~ <NA>       good     
##  6 Rock~ Male   brown     Anim~ Brown         122 Marvel C~ <NA>       good     
##  7 Dash  Male   blue      Human Blond         122 Dark Hor~ <NA>       good     
##  8 Howa~ Male   brown     <NA>  Yellow         79 Marvel C~ <NA>       good     
##  9 Swarm Male   yellow    Muta~ No Hair       196 Marvel C~ yellow     bad      
## 10 Yoda  Male   brown     Yoda~ White          66 George L~ green      good     
## # ... with 724 more rows, and 2 more variables: weight <dbl>,
## #   height_weight_ratio <dbl>
```
…
14. How many superheros have a combination of accelerated healing, durability, and super strength?

```r
superhero_powers %>% 
  filter(accelerated_healing == "TRUE" , durability == "TRUE" , super_strength == "TRUE")
```

```
## # A tibble: 97 x 168
##    hero_names agility accelerated_hea~ lantern_power_r~ dimensional_awa~
##    <chr>      <lgl>   <lgl>            <lgl>            <lgl>           
##  1 A-Bomb     FALSE   TRUE             FALSE            FALSE           
##  2 Abe Sapien TRUE    TRUE             FALSE            FALSE           
##  3 Angel      TRUE    TRUE             FALSE            FALSE           
##  4 Anti-Moni~ FALSE   TRUE             FALSE            TRUE            
##  5 Anti-Venom FALSE   TRUE             FALSE            FALSE           
##  6 Aquaman    TRUE    TRUE             FALSE            FALSE           
##  7 Arachne    TRUE    TRUE             FALSE            FALSE           
##  8 Archangel  TRUE    TRUE             FALSE            FALSE           
##  9 Ardina     TRUE    TRUE             FALSE            FALSE           
## 10 Ares       TRUE    TRUE             FALSE            FALSE           
## # ... with 87 more rows, and 163 more variables: cold_resistance <lgl>,
## #   durability <lgl>, stealth <lgl>, energy_absorption <lgl>, flight <lgl>,
## #   danger_sense <lgl>, underwater_breathing <lgl>, marksmanship <lgl>,
## #   weapons_master <lgl>, power_augmentation <lgl>, animal_attributes <lgl>,
## #   longevity <lgl>, intelligence <lgl>, super_strength <lgl>,
## #   cryokinesis <lgl>, telepathy <lgl>, energy_armor <lgl>,
## #   energy_blasts <lgl>, duplication <lgl>, size_changing <lgl>,
## #   density_control <lgl>, stamina <lgl>, astral_travel <lgl>,
## #   audio_control <lgl>, dexterity <lgl>, omnitrix <lgl>, super_speed <lgl>,
…
<style>
div.blue { background-color:#e6f0ff; border-radius: 5px; padding: 20px;}
</style>
<div class = "blue">

## `kinesis`
15. We are only interested in the superheros that do some kind of "kinesis". How would we isolate them from the `superhero_powers` data?

```r
superhero_powers %>% 
  select(ends_with("kinesis"))
```

```
## # A tibble: 667 x 9
##    cryokinesis electrokinesis telekinesis hyperkinesis hypnokinesis
##    <lgl>       <lgl>          <lgl>       <lgl>        <lgl>       
##  1 FALSE       FALSE          FALSE       FALSE        FALSE       
##  2 FALSE       FALSE          FALSE       FALSE        FALSE       
##  3 FALSE       FALSE          FALSE       FALSE        FALSE       
##  4 FALSE       FALSE          FALSE       FALSE        FALSE       
##  5 FALSE       FALSE          FALSE       FALSE        FALSE       
##  6 FALSE       FALSE          FALSE       FALSE        FALSE       
##  7 FALSE       FALSE          FALSE       FALSE        FALSE       
##  8 FALSE       FALSE          FALSE       FALSE        FALSE       
##  9 FALSE       FALSE          FALSE       FALSE        FALSE       
## 10 FALSE       FALSE          FALSE       FALSE        FALSE       
## # ... with 657 more rows, and 4 more variables: thirstokinesis <lgl>,
## #   biokinesis <lgl>, terrakinesis <lgl>, vitakinesis <lgl>
```
…
